\relax 
\providecommand\hyper@newdestlabel[2]{}
\providecommand\HyperFirstAtBeginDocument{\AtBeginDocument}
\HyperFirstAtBeginDocument{\ifx\hyper@anchor\@undefined
\global\let\oldcontentsline\contentsline
\gdef\contentsline#1#2#3#4{\oldcontentsline{#1}{#2}{#3}}
\global\let\oldnewlabel\newlabel
\gdef\newlabel#1#2{\newlabelxx{#1}#2}
\gdef\newlabelxx#1#2#3#4#5#6{\oldnewlabel{#1}{{#2}{#3}}}
\AtEndDocument{\ifx\hyper@anchor\@undefined
\let\contentsline\oldcontentsline
\let\newlabel\oldnewlabel
\fi}
\fi}
\global\let\hyper@last\relax 
\gdef\HyperFirstAtBeginDocument#1{#1}
\providecommand\HyField@AuxAddToFields[1]{}
\providecommand\HyField@AuxAddToCoFields[2]{}
\@input{titlepage.aux}
\@writefile{toc}{\beamer@endinputifotherversion {3.33pt}}
\@writefile{nav}{\beamer@endinputifotherversion {3.33pt}}
\select@language{english}
\@writefile{toc}{\select@language{english}}
\@writefile{lof}{\select@language{english}}
\@writefile{lot}{\select@language{english}}
\pgfsyspdfmark {pgfid1}{1864679}{9206646}
\pgfsyspdfmark {pgfid2}{1864679}{9206646}
\@input{intro.aux}
\pgfsyspdfmark {pgfid3}{1864679}{8121749}
\pgfsyspdfmark {pgfid4}{1864679}{8121749}
\pgfsyspdfmark {pgfid5}{1864679}{8121749}
\pgfsyspdfmark {pgfid6}{1864679}{8121749}
\@input{build.aux}
\pgfsyspdfmark {pgfid7}{1864679}{8121749}
\pgfsyspdfmark {pgfid8}{1864679}{8121749}
\pgfsyspdfmark {pgfid9}{1864679}{8121749}
\pgfsyspdfmark {pgfid10}{1864679}{8121749}
\pgfsyspdfmark {pgfid11}{1864679}{8121749}
\pgfsyspdfmark {pgfid12}{1864679}{8121749}
\pgfsyspdfmark {pgfid13}{1864679}{8121749}
\pgfsyspdfmark {pgfid14}{1864679}{8121749}
\pgfsyspdfmark {pgfid15}{1864679}{8121749}
\pgfsyspdfmark {pgfid16}{1864679}{8121749}
\@writefile{toc}{\beamer@sectionintoc {3}{Demo}{26}{0}{3}}
\@writefile{nav}{\headcommand {\sectionentry {3}{Demo}{26}{Demo}{0}}}
\@writefile{nav}{\headcommand {\beamer@sectionpages {7}{25}}}
\@writefile{nav}{\headcommand {\beamer@subsectionpages {7}{25}}}
\@writefile{nav}{\headcommand {\slideentry {3}{0}{10}{26/26}{}{0}}}
\@writefile{nav}{\headcommand {\beamer@framepages {26}{26}}}
\@input{thanks.aux}
\@writefile{toc}{\beamer@sectionintoc {4}{Conclusions}{27}{0}{4}}
\@writefile{nav}{\headcommand {\sectionentry {4}{Conclusions}{27}{Conclusions}{0}}}
\@writefile{nav}{\headcommand {\beamer@sectionpages {26}{26}}}
\@writefile{nav}{\headcommand {\beamer@subsectionpages {26}{26}}}
\@input{remarks.aux}
\@writefile{nav}{\headcommand {\beamer@partpages {1}{29}}}
\@writefile{nav}{\headcommand {\beamer@subsectionpages {27}{29}}}
\@writefile{nav}{\headcommand {\beamer@sectionpages {27}{29}}}
\@writefile{nav}{\headcommand {\beamer@documentpages {29}}}
\@writefile{nav}{\headcommand {\def \inserttotalframenumber {12}}}
