\beamer@endinputifotherversion {3.33pt}
\select@language {english}
\beamer@sectionintoc {1}{Idea}{3}{0}{1}
\beamer@sectionintoc {2}{Let's build it}{7}{0}{2}
\beamer@sectionintoc {3}{Demo}{26}{0}{3}
\beamer@sectionintoc {4}{Conclusions}{27}{0}{4}
