# Fdb version 3
["pdflatex"] 1410714059 "titlepage.tex" "titlepage.pdf" "titlepage" 1410714059
  "titlepage.aux" 1410714029 925 a2a344ff21a18b5198694009c3b8a6d0 ""
  "titlepage.tex" 1410714059 151 c5e237719d9e08402a50c1f9a859b8e7 ""
  (generated)
  "titlepage.log"
  "titlepage.pdf"
