EESchema Schematic File Version 2
LIBS:converterboard-rescue
LIBS:power
LIBS:device
LIBS:transistors
LIBS:conn
LIBS:linear
LIBS:regul
LIBS:74xx
LIBS:cmos4000
LIBS:adc-dac
LIBS:memory
LIBS:xilinx
LIBS:microcontrollers
LIBS:dsp
LIBS:microchip
LIBS:analog_switches
LIBS:motorola
LIBS:texas
LIBS:intel
LIBS:audio
LIBS:interface
LIBS:digital-audio
LIBS:philips
LIBS:display
LIBS:cypress
LIBS:siliconi
LIBS:opto
LIBS:atmel
LIBS:contrib
LIBS:valves
LIBS:AMS1117
LIBS:esp8266
LIBS:converterboard-cache
EELAYER 25 0
EELAYER END
$Descr A4 11693 8268
encoding utf-8
Sheet 1 1
Title ""
Date "13 oct 2015"
Rev ""
Comp ""
Comment1 ""
Comment2 ""
Comment3 ""
Comment4 ""
$EndDescr
$Comp
L AMS1117 U1
U 1 1 55B154D1
P 3300 1900
F 0 "U1" H 3300 1800 50  0000 C CNN
F 1 "AMS1117" H 3300 2000 50  0000 C CNN
F 2 "" H 3300 1900 60  0000 C CNN
F 3 "" H 3300 1900 60  0000 C CNN
	1    3300 1900
	1    0    0    -1  
$EndComp
$Comp
L MOSFET_N Q1
U 1 1 55B15672
P 7250 2450
F 0 "Q1" H 7260 2620 60  0000 R CNN
F 1 "2N7000" H 7260 2300 60  0000 R CNN
F 2 "~" H 7250 2450 60  0000 C CNN
F 3 "~" H 7250 2450 60  0000 C CNN
	1    7250 2450
	0    1    1    0   
$EndComp
$Comp
L R-RESCUE-converterboard R3
U 1 1 55B156CB
P 6600 2200
F 0 "R3" V 6680 2200 40  0000 C CNN
F 1 "10k" V 6607 2201 40  0000 C CNN
F 2 "~" V 6530 2200 30  0000 C CNN
F 3 "~" H 6600 2200 30  0000 C CNN
	1    6600 2200
	1    0    0    -1  
$EndComp
$Comp
L CONN_2 P1
U 1 1 55B15825
P 1150 1450
F 0 "P1" V 1100 1450 40  0000 C CNN
F 1 "POWER" V 1200 1450 40  0000 C CNN
F 2 "~" H 1150 1450 60  0000 C CNN
F 3 "~" H 1150 1450 60  0000 C CNN
	1    1150 1450
	0    -1   -1   0   
$EndComp
$Comp
L CONN_3 K2
U 1 1 55B158BC
P 10550 1750
F 0 "K2" V 10500 1750 50  0000 C CNN
F 1 "WS2812" V 10600 1750 40  0000 C CNN
F 2 "~" H 10550 1750 60  0000 C CNN
F 3 "~" H 10550 1750 60  0000 C CNN
	1    10550 1750
	0    -1   -1   0   
$EndComp
$Comp
L CP1-RESCUE-converterboard C1
U 1 1 55B1F3E4
P 4400 2450
F 0 "C1" H 4450 2550 50  0000 L CNN
F 1 "22 uF" H 4450 2350 50  0000 L CNN
F 2 "~" H 4400 2450 60  0000 C CNN
F 3 "~" H 4400 2450 60  0000 C CNN
	1    4400 2450
	1    0    0    -1  
$EndComp
$Comp
L CP1-RESCUE-converterboard C2
U 1 1 55B1F4FF
P 2250 2300
F 0 "C2" H 2300 2400 50  0000 L CNN
F 1 "1000uF" H 2300 2200 50  0000 L CNN
F 2 "~" H 2250 2300 60  0000 C CNN
F 3 "~" H 2250 2300 60  0000 C CNN
	1    2250 2300
	1    0    0    -1  
$EndComp
$Comp
L R-RESCUE-converterboard R1
U 1 1 55B2499D
P 4800 5500
F 0 "R1" V 4880 5500 40  0000 C CNN
F 1 "10k" V 4807 5501 40  0000 C CNN
F 2 "~" V 4730 5500 30  0000 C CNN
F 3 "~" H 4800 5500 30  0000 C CNN
	1    4800 5500
	1    0    0    -1  
$EndComp
$Comp
L GND-RESCUE-converterboard #PWR01
U 1 1 55B4ACB7
P 3300 2850
F 0 "#PWR01" H 3300 2850 30  0001 C CNN
F 1 "GND" H 3300 2780 30  0001 C CNN
F 2 "" H 3300 2850 60  0000 C CNN
F 3 "" H 3300 2850 60  0000 C CNN
	1    3300 2850
	1    0    0    -1  
$EndComp
Text GLabel 4650 1900 2    60   Input ~ 0
3V3
$Comp
L ESP8266 U2
U 1 1 56128CB9
P 6350 5350
F 0 "U2" H 6350 6200 60  0000 C CNN
F 1 "ESP8266" H 6350 6300 60  0000 C CNN
F 2 "~" H 6350 5350 60  0000 C CNN
F 3 "~" H 6350 5350 60  0000 C CNN
	1    6350 5350
	1    0    0    -1  
$EndComp
$Comp
L GND-RESCUE-converterboard #PWR02
U 1 1 5612904D
P 1050 2050
F 0 "#PWR02" H 1050 2050 30  0001 C CNN
F 1 "GND" H 1050 1980 30  0001 C CNN
F 2 "" H 1050 2050 60  0000 C CNN
F 3 "" H 1050 2050 60  0000 C CNN
	1    1050 2050
	1    0    0    -1  
$EndComp
$Comp
L GND-RESCUE-converterboard #PWR03
U 1 1 56129085
P 4400 2800
F 0 "#PWR03" H 4400 2800 30  0001 C CNN
F 1 "GND" H 4400 2730 30  0001 C CNN
F 2 "" H 4400 2800 60  0000 C CNN
F 3 "" H 4400 2800 60  0000 C CNN
	1    4400 2800
	1    0    0    -1  
$EndComp
$Comp
L GND-RESCUE-converterboard #PWR04
U 1 1 5612908B
P 2250 2900
F 0 "#PWR04" H 2250 2900 30  0001 C CNN
F 1 "GND" H 2250 2830 30  0001 C CNN
F 2 "" H 2250 2900 60  0000 C CNN
F 3 "" H 2250 2900 60  0000 C CNN
	1    2250 2900
	1    0    0    -1  
$EndComp
Text GLabel 1250 2050 3    60   Input ~ 0
5V
Text Notes 800  1200 0    60   ~ 0
Power circuit
Text GLabel 6100 1900 0    60   Input ~ 0
3V3
$Comp
L R-RESCUE-converterboard R4
U 1 1 55B15730
P 7950 2250
F 0 "R4" V 8030 2250 40  0000 C CNN
F 1 "10k" V 7957 2251 40  0000 C CNN
F 2 "~" V 7880 2250 30  0000 C CNN
F 3 "~" H 7950 2250 30  0000 C CNN
	1    7950 2250
	1    0    0    -1  
$EndComp
Text GLabel 10650 2250 3    60   Input ~ 0
5V
Text Notes 5800 1200 0    60   ~ 0
Level converter
Text GLabel 6450 2550 0    60   Input ~ 0
LOGIC_LOW
Text GLabel 8200 2550 2    60   Input ~ 0
LOGIC HIGH
$Comp
L GND-RESCUE-converterboard #PWR05
U 1 1 56129766
P 10450 2250
F 0 "#PWR05" H 10450 2250 30  0001 C CNN
F 1 "GND" H 10450 2180 30  0001 C CNN
F 2 "" H 10450 2250 60  0000 C CNN
F 3 "" H 10450 2250 60  0000 C CNN
	1    10450 2250
	1    0    0    -1  
$EndComp
Text GLabel 8350 1900 2    60   Input ~ 0
5V
Text GLabel 9750 2400 0    60   Input ~ 0
LOGIC HIGH
$Comp
L R-RESCUE-converterboard R5
U 1 1 5612985E
P 10200 2400
F 0 "R5" V 10280 2400 40  0000 C CNN
F 1 "470" V 10207 2401 40  0000 C CNN
F 2 "~" V 10130 2400 30  0000 C CNN
F 3 "~" H 10200 2400 30  0000 C CNN
	1    10200 2400
	0    -1   -1   0   
$EndComp
Text Notes 9200 1200 0    60   ~ 0
Ledstrip
$Comp
L CONN_7 K1
U 1 1 56129D83
P 6350 3500
F 0 "K1" V 6300 3500 50  0000 C CNN
F 1 "DEBUG" V 6400 3500 40  0000 C CNN
F 2 "~" H 6350 3500 60  0000 C CNN
F 3 "~" H 6350 3500 60  0000 C CNN
	1    6350 3500
	0    -1   -1   0   
$EndComp
Text GLabel 4600 6050 0    60   Input ~ 0
3V3
$Comp
L GND-RESCUE-converterboard #PWR06
U 1 1 56129E92
P 7750 6800
F 0 "#PWR06" H 7750 6800 30  0001 C CNN
F 1 "GND" H 7750 6730 30  0001 C CNN
F 2 "" H 7750 6800 60  0000 C CNN
F 3 "" H 7750 6800 60  0000 C CNN
	1    7750 6800
	1    0    0    -1  
$EndComp
$Comp
L GND-RESCUE-converterboard #PWR07
U 1 1 5612A1F8
P 6300 3950
F 0 "#PWR07" H 6300 3950 30  0001 C CNN
F 1 "GND" H 6300 3880 30  0001 C CNN
F 2 "" H 6300 3950 60  0000 C CNN
F 3 "" H 6300 3950 60  0000 C CNN
	1    6300 3950
	1    0    0    -1  
$EndComp
Text GLabel 7150 4000 2    60   Input ~ 0
3V3
Text GLabel 8400 5450 2    60   Input ~ 0
LOGIC_LOW
Wire Wire Line
	7250 1900 7250 2250
Wire Wire Line
	1250 1800 1250 2050
Wire Wire Line
	4400 2250 4400 1900
Connection ~ 4400 1900
Wire Wire Line
	1050 2050 1050 1800
Wire Wire Line
	3300 2850 3300 2400
Wire Wire Line
	4400 2800 4400 2650
Wire Wire Line
	2250 2500 2250 2900
Connection ~ 2250 1900
Wire Wire Line
	1250 1900 2500 1900
Wire Notes Line
	5350 1100 5350 3150
Wire Notes Line
	5350 3150 700  3150
Wire Notes Line
	700  3150 700  1050
Wire Notes Line
	700  1050 5350 1050
Wire Notes Line
	5350 1050 5350 1150
Wire Wire Line
	7250 1900 6100 1900
Wire Wire Line
	6450 2550 7050 2550
Wire Wire Line
	6600 2550 6600 2450
Wire Wire Line
	6600 1950 6600 1900
Connection ~ 6600 1900
Wire Wire Line
	7950 2500 7950 2550
Connection ~ 7950 2550
Wire Wire Line
	7450 2550 8200 2550
Wire Wire Line
	8350 1900 7950 1900
Wire Wire Line
	7950 1900 7950 2000
Wire Notes Line
	5650 1050 8850 1050
Wire Notes Line
	8850 1050 8850 3150
Wire Notes Line
	8850 3150 5650 3150
Wire Notes Line
	5650 3150 5650 1050
Connection ~ 6600 2550
Wire Wire Line
	10450 2100 10450 2250
Wire Notes Line
	9050 1050 11000 1050
Wire Notes Line
	11000 1050 11000 3150
Wire Notes Line
	11000 3150 9050 3150
Wire Notes Line
	9050 3150 9050 1050
Wire Wire Line
	2250 1900 2250 2100
Connection ~ 1250 1900
Wire Wire Line
	4650 1900 4100 1900
Wire Wire Line
	10650 2250 10650 2100
Wire Wire Line
	10550 2100 10550 2400
Wire Wire Line
	10550 2400 10450 2400
Wire Wire Line
	9950 2400 9750 2400
Wire Wire Line
	4600 6050 5250 6050
Wire Wire Line
	5250 5050 4800 5050
Wire Wire Line
	4800 5050 4800 5250
Wire Wire Line
	4800 5750 4800 6050
Connection ~ 4800 6050
Wire Wire Line
	5100 4650 5100 4050
Wire Wire Line
	5100 4050 6450 4050
Wire Wire Line
	7550 4250 7550 4650
Wire Wire Line
	6150 4250 7550 4250
Wire Wire Line
	7700 4200 7700 4850
Wire Wire Line
	6050 4200 7700 4200
Wire Wire Line
	7450 5450 8400 5450
Wire Wire Line
	7750 5450 7750 4150
Wire Wire Line
	7750 4150 6550 4150
Wire Wire Line
	6550 4150 6550 3850
Wire Wire Line
	7150 4000 6650 4000
Wire Wire Line
	6650 4000 6650 3850
Connection ~ 7750 5450
Wire Wire Line
	7750 6050 7750 6800
Wire Wire Line
	5250 4650 5100 4650
Wire Wire Line
	7750 6050 7450 6050
Wire Wire Line
	7550 4650 7450 4650
Wire Wire Line
	7700 4850 7450 4850
Wire Wire Line
	6450 4050 6450 3850
Wire Wire Line
	6050 3850 6050 4200
Wire Wire Line
	6150 3850 6150 4250
Wire Wire Line
	6350 3900 6350 3850
Wire Wire Line
	6250 3900 6350 3900
Wire Wire Line
	6300 3900 6300 3950
Wire Wire Line
	6250 3850 6250 3900
Connection ~ 6300 3900
$EndSCHEMATC
